{
	"Build  Specifications": [],
	"BuildSpec.Name of target (My Computer)": "My Computer",
	"Local Base Path": "Z:\\labview\\gpm_packages\\@cs\\test-executive",
	"Package Directory": "Source",
	"Project to Build": "Test Executive.lvproj",
	"Test blacklist": [],
	"Test whitelist": [],
	"VI Analyzer Configuration": [
		"Tests\\VIA_tests_gpm.cfg"
	],
	"VI Tester Directory": "Tests",
	"VIA.Configuration File Password": ""
}